{
  "href": "https://api.spotify.com/v1/artists/0oSGxfWSnnOXhD2fKuz2Gy/albums?offset=0&limit=1&include_groups=album,single,compilation,appears_on",
  "items": [
    {
      "album_group": "album",
      "album_type": "album",
      "artists": [
        {
          "external_urls": {
            "spotify": "https://open.spotify.com/artist/0oSGxfWSnnOXhD2fKuz2Gy"
          },
          "href": "https://api.spotify.com/v1/artists/0oSGxfWSnnOXhD2fKuz2Gy",
          "id": "0oSGxfWSnnOXhD2fKuz2Gy",
          "name": "David Bowie",
          "type": "artist",
          "uri": "spotify:artist:0oSGxfWSnnOXhD2fKuz2Gy"
        }
      ],
      "available_markets": [
        "AD",
        "AE",
        "AG",
        "AL",
        "AM",
        "AO",
        "AR",
        "AT",
        "AU",
        "AZ",
        "BA",
        "BB",
        "BD",
        "BE",
        "BF",
        "BG",
        "BH",
        "BI",
        "BJ",
        "BN",
        "BO",
        "BR",
        "BS",
        "BT",
        "BW",
        "BY",
        "BZ",
        "CA",
        "CH",
        "CI",
        "CL",
        "CM",
        "CO",
        "CR",
        "CV",
        "CW",
        "CY",
        "CZ",
        "DE",
        "DJ",
        "DK",
        "DM",
        "DO",
        "DZ",
        "EC",
        "EE",
        "EG",
        "ES",
        "FI",
        "FJ",
        "FM",
        "FR",
        "GA",
        "GB",
        "GD",
        "GE",
        "GH",
        "GM",
        "GN",
        "GQ",
        "GR",
        "GT",
        "GW",
        "GY",
        "HK",
        "HN",
        "HR",
        "HT",
        "HU",
        "ID",
        "IE",
        "IL",
        "IN",
        "IS",
        "IT",
        "JM",
        "JO",
        "JP",
        "KE",
        "KG",
        "KH",
        "KI",
        "KM",
        "KN",
        "KR",
        "KW",
        "KZ",
        "LA",
        "LB",
        "LC",
        "LI",
        "LK",
        "LR",
        "LS",
        "LT",
        "LU",
        "LV",
        "MA",
        "MC",
        "MD",
        "ME",
        "MG",
        "MH",
        "MK",
        "ML",
        "MN",
        "MO",
        "MR",
        "MT",
        "MU",
        "MV",
        "MW",
        "MX",
        "MY",
        "MZ",
        "NA",
        "NE",
        "NG",
        "NI",
        "NL",
        "NO",
        "NP",
        "NR",
        "NZ",
        "OM",
        "PA",
        "PE",
        "PG",
        "PH",
        "PK",
        "PL",
        "PS",
        "PT",
        "PW",
        "PY",
        "QA",
        "RO",
        "RS",
        "RU",
        "RW",
        "SA",
        "SB",
        "SC",
        "SE",
        "SG",
        "SI",
        "SK",
        "SL",
        "SM",
        "SN",
        "SR",
        "ST",
        "SV",
        "SZ",
        "TD",
        "TG",
        "TH",
        "TL",
        "TN",
        "TO",
        "TR",
        "TT",
        "TV",
        "TW",
        "TZ",
        "UA",
        "UG",
        "US",
        "UY",
        "UZ",
        "VC",
        "VN",
        "VU",
        "WS",
        "XK",
        "ZA",
        "ZM",
        "ZW"
      ],
      "external_urls": {
        "spotify": "https://open.spotify.com/album/05uqcnORTiDNi7AxDIwwxV"
      },
      "href": "https://api.spotify.com/v1/albums/05uqcnORTiDNi7AxDIwwxV",
      "id": "05uqcnORTiDNi7AxDIwwxV",
      "images": [
        {
          "height": 640,
          "url": "https://i.scdn.co/image/ab67616d0000b27330a74f00fb4214a8edb45732",
          "width": 640
        },
        {
          "height": 300,
          "url": "https://i.scdn.co/image/ab67616d00001e0230a74f00fb4214a8edb45732",
          "width": 300
        },
        {
          "height": 64,
          "url": "https://i.scdn.co/image/ab67616d0000485130a74f00fb4214a8edb45732",
          "width": 64
        }
      ],
      "name": "At The Kit Kat Klub (Live New York 99)",
      "release_date": "2021-04-02",
      "release_date_precision": "day",
      "total_tracks": 12,
      "type": "album",
      "uri": "spotify:album:05uqcnORTiDNi7AxDIwwxV"
    }
  ],
  "limit": 1,
  "next": "https://api.spotify.com/v1/artists/0oSGxfWSnnOXhD2fKuz2Gy/albums?offset=1&limit=1&include_groups=album,single,compilation,appears_on",
  "offset": 0,
  "previous": null,
  "total": 372
}