{
  "categories": {
    "href": "https://api.spotify.com/v1/browse/categories?offset=0&limit=20",
    "items": [
      {
        "href": "https://api.spotify.com/v1/browse/categories/toplists",
        "icons": [
          {
            "height": 275,
            "url": "https://t.scdn.co/media/derived/toplists_11160599e6a04ac5d6f2757f5511778f_0_0_275_275.jpg",
            "width": 275
          }
        ],
        "id": "toplists",
        "name": "Top Lists"
      },
      {
        "href": "https://api.spotify.com/v1/browse/categories/pop",
        "icons": [
          {
            "height": 274,
            "url": "https://t.scdn.co/media/derived/pop-274x274_447148649685019f5e2a03a39e78ba52_0_0_274_274.jpg",
            "width": 274
          }
        ],
        "id": "pop",
        "name": "Pop"
      },
      {
        "href": "https://api.spotify.com/v1/browse/categories/mood",
        "icons": [
          {
            "height": 274,
            "url": "https://t.scdn.co/media/original/mood-274x274_976986a31ac8c49794cbdc7246fd5ad7_274x274.jpg",
            "width": 274
          }
        ],
        "id": "mood",
        "name": "Mood"
      },
      {
        "href": "https://api.spotify.com/v1/browse/categories/hiphop",
        "icons": [
          {
            "height": 274,
            "url": "https://t.scdn.co/media/original/hip-274_0a661854d61e29eace5fe63f73495e68_274x274.jpg",
            "width": 274
          }
        ],
        "id": "hiphop",
        "name": "Hip Hop"
      },
      {
        "href": "https://api.spotify.com/v1/browse/categories/workout",
        "icons": [
          {
            "height": null,
            "url": "https://t.scdn.co/media/links/workout-274x274.jpg",
            "width": null
          }
        ],
        "id": "workout",
        "name": "Workout"
      },
      {
        "href": "https://api.spotify.com/v1/browse/categories/edm_dance",
        "icons": [
          {
            "height": 274,
            "url": "https://t.scdn.co/media/derived/edm-274x274_0ef612604200a9c14995432994455a6d_0_0_274_274.jpg",
            "width": 274
          }
        ],
        "id": "edm_dance",
        "name": "Dance/Electronic"
      },
      {
        "href": "https://api.spotify.com/v1/browse/categories/party",
        "icons": [
          {
            "height": null,
            "url": "https://t.scdn.co/images/7ee6530d5b3c4acc9a0957046bf11d63",
            "width": null
          }
        ],
        "id": "party",
        "name": "Party"
      },
      {
        "href": "https://api.spotify.com/v1/browse/categories/alternative",
        "icons": [
          {
            "height": null,
            "url": "https://t.scdn.co/images/ee9451b3ed474c82b1da8f9b5eafc88f.jpeg",
            "width": null
          }
        ],
        "id": "alternative",
        "name": "Alternative"
      },
      {
        "href": "https://api.spotify.com/v1/browse/categories/summer",
        "icons": [
          {
            "height": null,
            "url": "https://t.scdn.co/images/8e508d7eb5b843a89c368c9507ecc429.jpeg",
            "width": null
          }
        ],
        "id": "summer",
        "name": "Summer"
      },
      {
        "href": "https://api.spotify.com/v1/browse/categories/at_home",
        "icons": [
          {
            "height": null,
            "url": "https://t.scdn.co/images/04da469dd7be4dab96659aa1fa9f0ac9.jpeg",
            "width": null
          }
        ],
        "id": "at_home",
        "name": "At Home"
      },
      {
        "href": "https://api.spotify.com/v1/browse/categories/wellness",
        "icons": [
          {
            "height": null,
            "url": "https://t.scdn.co/images/2adf91e7179a4e098834d630c74824b1.jpeg",
            "width": null
          }
        ],
        "id": "wellness",
        "name": "Wellness"
      },
      {
        "href": "https://api.spotify.com/v1/browse/categories/rock",
        "icons": [
          {
            "height": 274,
            "url": "https://t.scdn.co/media/derived/rock_9ce79e0a4ef901bbd10494f5b855d3cc_0_0_274_274.jpg",
            "width": 274
          }
        ],
        "id": "rock",
        "name": "Rock"
      },
      {
        "href": "https://api.spotify.com/v1/browse/categories/equal",
        "icons": [
          {
            "height": null,
            "url": "https://t.scdn.co/images/084155aeaa724ea1bd393a017d67b709",
            "width": null
          }
        ],
        "id": "equal",
        "name": "EQUAL"
      },
      {
        "href": "https://api.spotify.com/v1/browse/categories/rnb",
        "icons": [
          {
            "height": 274,
            "url": "https://t.scdn.co/media/derived/r-b-274x274_fd56efa72f4f63764b011b68121581d8_0_0_274_274.jpg",
            "width": 274
          }
        ],
        "id": "rnb",
        "name": "RnB"
      },
      {
        "href": "https://api.spotify.com/v1/browse/categories/chill",
        "icons": [
          {
            "height": 274,
            "url": "https://t.scdn.co/media/derived/chill-274x274_4c46374f007813dd10b37e8d8fd35b4b_0_0_274_274.jpg",
            "width": 274
          }
        ],
        "id": "chill",
        "name": "Chill"
      },
      {
        "href": "https://api.spotify.com/v1/browse/categories/blackhistorymonth",
        "icons": [
          {
            "height": null,
            "url": "https://t.scdn.co/images/9b0fe809ec654ed9b3b8257e31739d8f.jpeg",
            "width": null
          }
        ],
        "id": "blackhistorymonth",
        "name": "Black History Is Now"
      },
      {
        "href": "https://api.spotify.com/v1/browse/categories/indie_alt",
        "icons": [
          {
            "height": null,
            "url": "https://t.scdn.co/images/fe06caf056474bc58862591cd60b57fc.jpeg",
            "width": null
          }
        ],
        "id": "indie_alt",
        "name": "Indie"
      },
      {
        "href": "https://api.spotify.com/v1/browse/categories/kids_family",
        "icons": [
          {
            "height": null,
            "url": "https://t.scdn.co/images/664bb84f7a774e1eadb7c227aed98f3c",
            "width": null
          }
        ],
        "id": "kids_family",
        "name": "Kids & Family"
      },
      {
        "href": "https://api.spotify.com/v1/browse/categories/throwback",
        "icons": [
          {
            "height": null,
            "url": "https://t.scdn.co/images/448949e524284cea9aedbf32aa69d90f.jpeg",
            "width": null
          }
        ],
        "id": "throwback",
        "name": "Throwback"
      },
      {
        "href": "https://api.spotify.com/v1/browse/categories/caribbean",
        "icons": [
          {
            "height": null,
            "url": "https://t.scdn.co/images/495fadcefe234607b14b2db3381f3f5d.jpeg",
            "width": null
          }
        ],
        "id": "caribbean",
        "name": "Caribbean"
      }
    ],
    "limit": 20,
    "next": "https://api.spotify.com/v1/browse/categories?offset=20&limit=20",
    "offset": 0,
    "previous": null,
    "total": 52
  }
}